
{
  "data":
    {
      "title": "pixelfed",
      "category": "social network",
      "type": "image sharing, microblogging",
      "logoClr": "6736dd",
      "created": "2018",
      "official": "https://pixelfed.org",
      "license": "AGPL-3.0",
      "repo": "https://github.com/dansup/pixelfed",
      "language": "PHP",
      "protocols":
        [
          {"title": "ActivityPub", "url": "https://activitypub.rocks"}
        ],
      "wiki": "",
      "servers":
        [
          {"num": "1", "url": "https://the-federation.info/pixelfed"},
          {"num": "2", "url": "https://fediverse.network/pixelfed"}
        ],
      "mobile": "https://github.com/glitchpizza/morii",
      "devTutorials": "https://github.com/pixelfed/pixelfed#installation",
      "mascot": [{"item": "?"}],
      "dwellers": "?",
      "communities": "",
      "descr": "Pixelfed is an image sharing platform with modern user interface.",
      "connections": ["Friendica", "Hubzilla", "Mastodon", "Pleroma"],
      "donate": "https://www.patreon.com/dansup",
      "tracker": "https://github.com/dansup/pixelfed/issues",
      "bounty": "",
      "translating": "",
      "reading": "",
      "notable": ""
    }
}
